<?xml version="1.0" encoding="utf-8"?>
<!-- Generator: Adobe Illustrator 25.1.0, SVG Export Plug-In . SVG Version: 6.00 Build 0)  -->
<svg version="1.1" id="Lag_1" xmlns="http://www.w3.org/2000/svg" xmlns:xlink="http://www.w3.org/1999/xlink" x="0px" y="0px"
	 viewBox="0 0 29.6 44.5" style="enable-background:new 0 0 29.6 44.5;" xml:space="preserve">
<path d="M29.6,39.9v4.6H0v-4.6H29.6z"/>
<polygon points="18.5,31.6 23.4,31.6 17.6,0.3 12.1,0.3 6.3,31.6 11.1,31.6 11.8,26.9 11.8,26.9 11.8,26.9 12,26 12,26 12.9,19.9 
	12.9,19.9 14.7,6.8 14.9,6.8 16.8,19.9 16.8,19.9 17.8,26.9 17.8,26.9 "/>
</svg>
